State,x,y
"Sinaloa (P,Q,R)",25.119084,-107.513434
"Oaxaca (F,G,H,I,J)",17.069152,-96.730067
"Toluca (S,T,U,V)",19.284874,-99.653530
"Pachuca (K,L,M,N,O)",20.098890,-98.756070
"Irapuato (A,B,C,D,E)",20.675888,-101.355365
"U.S.A. (521)",37,-100
